com\springboot\springboot_mybatis\Application.class
com\springboot\springboot_mybatis\service\CityService.class
com\springboot\springboot_mybatis\service\Impl\CityServiceImpl.class
com\springboot\springboot_mybatis\controller\CityRestController.class
com\springboot\springboot_mybatis\dao\CityDao.class
com\springboot\springboot_mybatis\bean\City.class
